vcd/test_decode.vcd
$date
  Tue Aug  2 12:36:50 2022
$end
$version
  PyMTL 3 (Mamba)
$end
$timescale
 10ps
$end

$scope module top $end
  $var reg 64 + fetch_packet $end
  $var reg 294 , dual_uop $end
  $var reg 32 % inst2 $end
  $var reg 1 ' reset $end
  $var reg 32 ( inst1 $end
  $var reg 1 & clk $end
  $scope module d1 $end
    $var reg 24 - pregs $end
    $var reg 1 & clk $end
    $var reg 2 ! pregs_busy $end
    $var reg 1 ' reset $end
    $var reg 147 ) uop $end
    $var reg 32 ( inst $end
  $upscope $end
  $scope module d2 $end
    $var reg 32 % inst $end
    $var reg 24 . pregs $end
    $var reg 1 & clk $end
    $var reg 2 " pregs_busy $end
    $var reg 1 ' reset $end
    $var reg 147 * uop $end
  $upscope $end
  $scope module register_rename $end
    $var reg 24 / inst2_pregs $end
    $var reg 24 0 inst1_pregs $end
    $var reg 1 & clk $end
    $var reg 64 $ busy_table $end
    $var reg 1 ' reset $end
    $var reg 2 ! inst1_pregs_busy $end
    $var reg 2 " inst2_pregs_busy $end
    $var reg 15 1 inst2_lregs $end
    $var reg 15 2 inst1_lregs $end
    $var reg 64 # free_list $end
  $upscope $end
$upscope $end
$enddefinitions $end

b0b00 !
b0b00 "
b0b0000000000000000000000000000000000000000000000000000000000000000 #
b0b0000000000000000000000000000000000000000000000000000000000000000 $
b0b00000000000000000000000000000000 %
b0b0 &
b0b0 '
b0b00000000000000000000000000000000 (
b0b000000000000000000000000000000000000000000000000000000000000000000000000000000000000000000000000000000000000000000000000000000000000000000000000000 )
b0b000000000000000000000000000000000000000000000000000000000000000000000000000000000000000000000000000000000000000000000000000000000000000000000000000 *
b0b0000000000000000000000000000000000000000000000000000000000000000 +
b0b000000000000000000000000000000000000000000000000000000000000000000000000000000000000000000000000000000000000000000000000000000000000000000000000000000000000000000000000000000000000000000000000000000000000000000000000000000000000000000000000000000000000000000000000000000000000000000000000000000 ,
b0b000000000000000000000000 -
b0b000000000000000000000000 .
b0b000000000000000000000000 /
b0b000000000000000000000000 0
b0b000000000000000 1
b0b000000000000000 2

#0
b0b1 &

b0b1111111111111111111111111111111111111111111111111111111111111110 #
b0b1 '
b0b00000000000000000000000000000000 (
b0b000000000000000000000000000000000000000000000000000000000000000000000000000000000000000000000000000000000000000000000000000000000000000000000000000 )
b0b0000000000000000000000000000000000000000000000000000000000000000 +
b0b000000000000000000000000000000000000000000000000000000000000000000000000000000000000000000000000000000000000000000000000000000000000000000000000000000000000000000000000000000000000000000000000000000000000000000000000000000000000000000000000000000000000000000000000000000000000000000000000000000 ,
b0b000000000000000000000000 -
b0b000000000000000 1

#50
b0b0 &
#100
b0b1 &


#150
b0b0 &
#200
b0b1 &


#250
b0b0 &
#300
b0b1 &

b0b11 "
b0b00000001001010010000100110110011 %
b0b00001011111011101111100100110111 (
b0b000000001011111011101111100100110111000000000000000000000000000000001001000000000000000010000000000000000000000001011111011101111000000000000000000 )
b0b000000000001001010010000100110110011000000000000000000000000000000001001110010100100000100000010000010000001100000000000000000000000000000000000000 *
b0b0000101111101110111110010011011100000001001010010000100110110011 +
b0b000000001011111011101111100100110111000000000000000000000000000000001001000000000000000010000000000000000000000001011111011101111000000000000000000000000000001001010010000100110110011000000000000000000000000000000001001110010100100000100000010000010000001100000000000000000000000000000000000000 ,
b0b000001000000000000000000 -
b0b000010000001000001000000 .
b0b000010000001000001000000 /
b0b000001000000000000000000 0
b0b100111001010010 1
b0b100100000000000 2

#350
b0b0 &
#400
b0b1 &


#450
b0b0 &
#500
b0b1 &


#550
b0b0 &
#600
b0b1 &

b0b00 "
b0b00000101010010101010000000100011 %
b0b00000010000010011010100100000011 (
b0b000000000010000010011010100100000011000000000000000000000000000000001001010011000000000010000000000000000000000000000000000000000000000100000000000 )
b0b000000000101010010101010000000100011000000000000000000000000000000000000010101101000000000000000000000000000000000000000000000000000001000000000000 *
b0b0000001000001001101010010000001100000101010010101010000000100011 +
b0b000000000010000010011010100100000011000000000000000000000000000000001001010011000000000010000000000000000000000000000000000000000000000100000000000000000000101010010101010000000100011000000000000000000000000000000000000010101101000000000000000000000000000000000000000000000000000001000000000000 ,
b0b000000000000000000000000 .
b0b000000000000000000000000 /
b0b000001010110100 1
b0b100101001100000 2

#650
b0b0 &
#700
b0b1 &


#750
b0b0 &
#800
b0b1 &


#850
b0b0 &
#900
b0b1 &

