vcd/test_decode.vcd
$date
  Wed Aug 31 14:44:21 2022
$end
$version
  PyMTL 3 (Mamba)
$end
$timescale
 10ps
$end

$scope module top $end
  $var reg 98 9 fetch_packet $end
  $var reg 336 : dual_uop $end
  $var reg 6 * stale_in(1) $end
  $var reg 64 1 busy_table $end
  $var reg 2 ; mem_q_allocate $end
  $var reg 6 4 ready_in(0) $end
  $var reg 32 - inst1 $end
  $var reg 6 . stale_in(0) $end
  $var reg 1 ' clk $end
  $var reg 36 " br_update.msg $end
  $var reg 1 < br_update.rdy $end
  $var reg 6 0 ready_in(1) $end
  $var reg 32 3 inst2 $end
  $var reg 1 & br_update.en $end
  $var reg 1 # reset $end
  $scope module register_rename $end
    $var reg 6 = map_table(29) $end
    $var reg 6 > map_table(25) $end
    $var reg 6 ? map_table(11) $end
    $var reg 6 @ map_table(26) $end
    $var reg 6 A map_table(12) $end
    $var reg 1 # reset $end
    $var reg 6 B map_table(5) $end
    $var reg 6 C map_table(9) $end
    $var reg 6 D map_table(10) $end
    $var reg 6 . stale_in(0) $end
    $var reg 6 E map_table(6) $end
    $var reg 6 F map_table(2) $end
    $var reg 2 / inst1_pregs_busy $end
    $var reg 2 + inst2_pregs_busy $end
    $var reg 6 G map_table(13) $end
    $var reg 6 0 ready_in(1) $end
    $var reg 64 1 busy_table $end
    $var reg 15 H inst2_lregs $end
    $var reg 6 I map_table(4) $end
    $var reg 24 J inst2_pregs $end
    $var reg 64 K busy_table_next $end
    $var reg 6 L map_table(0) $end
    $var reg 6 M map_table(19) $end
    $var reg 1 ' clk $end
    $var reg 6 N map_table(17) $end
    $var reg 6 O map_table(28) $end
    $var reg 6 P map_table(3) $end
    $var reg 6 * stale_in(1) $end
    $var reg 64 Q free_list_next $end
    $var reg 1 7 br_update.rdy $end
    $var reg 6 R map_table(20) $end
    $var reg 6 S map_table(22) $end
    $var reg 6 T map_table(14) $end
    $var reg 6 U map_table(15) $end
    $var reg 6 V map_table_wr2 $end
    $var reg 6 W map_table(30) $end
    $var reg 6 X pdst2 $end
    $var reg 6 Y map_table(8) $end
    $var reg 1 & br_update.en $end
    $var reg 64 Z free_list $end
    $var reg 6 [ pdst1 $end
    $var reg 24 \ inst1_pregs $end
    $var reg 6 ] map_table(16) $end
    $var reg 6 ^ map_table(21) $end
    $var reg 36 " br_update.msg $end
    $var reg 6 _ map_table(24) $end
    $var reg 6 ` map_table(7) $end
    $var reg 15 a inst1_lregs $end
    $var reg 6 b map_table(18) $end
    $var reg 6 c map_table(27) $end
    $var reg 6 d map_table(1) $end
    $var reg 6 4 ready_in(0) $end
    $var reg 6 e map_table_wr1 $end
    $var reg 6 f map_table(31) $end
    $var reg 6 g map_table(23) $end
  $upscope $end
  $scope module d2 $end
    $var reg 32 3 inst $end
    $var reg 2 + pregs_busy $end
    $var reg 8 ( br_mask $end
    $var reg 4 h mem_q_idx $end
    $var reg 1 2 branch_taken $end
    $var reg 32 , pc $end
    $var reg 3 $ br_tag $end
    $var reg 1 ' clk $end
    $var reg 24 i pregs $end
    $var reg 1 6 valid $end
    $var reg 1 # reset $end
    $var reg 168 8 uop $end
  $upscope $end
  $scope module branch_allocate $end
    $var reg 8 ( br_mask(1) $end
    $var reg 8 j br_freelist $end
    $var reg 1 k br_tag(0).en $end
    $var reg 8 ) br_mask(0) $end
    $var reg 3 $ br_tag(1).msg $end
    $var reg 1 & br_update.en $end
    $var reg 1 l br_tag(1).en $end
    $var reg 1 ! br_update.rdy $end
    $var reg 1 m br_tag(1).rdy $end
    $var reg 1 ' clk $end
    $var reg 3 % br_tag(0).msg $end
    $var reg 1 # reset $end
    $var reg 36 " br_update.msg $end
    $var reg 8 n br_freelist_next $end
    $var reg 1 o full $end
    $var reg 1 p br_tag(0).rdy $end
  $upscope $end
  $scope module d1 $end
    $var reg 24 q pregs $end
    $var reg 168 5 uop $end
    $var reg 32 , pc $end
    $var reg 8 ) br_mask $end
    $var reg 32 - inst $end
    $var reg 1 2 branch_taken $end
    $var reg 1 ' clk $end
    $var reg 4 r mem_q_idx $end
    $var reg 2 / pregs_busy $end
    $var reg 3 % br_tag $end
    $var reg 1 6 valid $end
    $var reg 1 # reset $end
  $upscope $end
$upscope $end
$enddefinitions $end

b0b0 !
b0b000000000000000000000000000000000000 "
b0b0 #
b0b000 $
b0b000 %
b0b0 &
b0b0 '
b0b00000000 (
b0b00000000 )
b0b000000 *
b0b00 +
b0b00000000000000000000000000000000 ,
b0b00000000000000000000000000000000 -
b0b000000 .
b0b00 /
b0b000000 0
b0b0000000000000000000000000000000000000000000000000000000000000000 1
b0b0 2
b0b00000000000000000000000000000000 3
b0b000000 4
b0b000000000000000000000000000000000000000000000000000000000000000000000000000000000000000000000000000000000000000000000000000000000000000000000000000000000000000000000000 5
b0b0 6
b0b0 7
b0b000000000000000000000000000000000000000000000000000000000000000000000000000000000000000000000000000000000000000000000000000000000000000000000000000000000000000000000000 8
b0b00000000000000000000000000000000000000000000000000000000000000000000000000000000000000000000000000 9
b0b000000000000000000000000000000000000000000000000000000000000000000000000000000000000000000000000000000000000000000000000000000000000000000000000000000000000000000000000000000000000000000000000000000000000000000000000000000000000000000000000000000000000000000000000000000000000000000000000000000000000000000000000000000000000000000000000 :
b0b00 ;
b0b0 <
b0b000000 =
b0b000000 >
b0b000000 ?
b0b000000 @
b0b000000 A
b0b000000 B
b0b000000 C
b0b000000 D
b0b000000 E
b0b000000 F
b0b000000 G
b0b000000000000000 H
b0b000000 I
b0b000000000000000000000000 J
b0b0000000000000000000000000000000000000000000000000000000000000000 K
b0b000000 L
b0b000000 M
b0b000000 N
b0b000000 O
b0b000000 P
b0b0000000000000000000000000000000000000000000000000000000000000000 Q
b0b000000 R
b0b000000 S
b0b000000 T
b0b000000 U
b0b000000 V
b0b000000 W
b0b000000 X
b0b000000 Y
b0b0000000000000000000000000000000000000000000000000000000000000000 Z
b0b000000 [
b0b000000000000000000000000 \
b0b000000 ]
b0b000000 ^
b0b000000 _
b0b000000 `
b0b000000000000000 a
b0b000000 b
b0b000000 c
b0b000000 d
b0b000000 e
b0b000000 f
b0b000000 g
b0b0000 h
b0b000000000000000000000000 i
b0b00000000 j
b0b0 k
b0b0 l
b0b0 m
b0b00000000 n
b0b0 o
b0b0 p
b0b000000000000000000000000 q
b0b0000 r

#0
b0b1 '

b0b1 !
b0b1 #
b0b00000000 (
b0b000000 *
b0b00 +
b0b00000000000000000000000000000000 ,
b0b000000 .
b0b00 /
b0b000000 0
b0b0000000000000000000000000000000000000000000000000000000000000000 1
b0b0 2
b0b00000000000000000000000000000000 3
b0b000000 4
b0b000000000000000000000000000000000000000000000000000000000000000000000000000000000000000000000000000000000000000000000000000000000000000000000000000000000000000000000000 5
b0b0 6
b0b1 7
b0b000000000000000000000000000000000000000000000000000000000000000010000000000000000000000000000000000000000000000000000000000000000000000000000000000000000000000000000000 8
b0b00000000000000000000000000000000000000000000000000000000000000000000000000000000000000000000000000 9
b0b000000000000000000000000000000000000000000000000000000000000000000000000000000000000000000000000000000000000000000000000000000000000000000000000000000000000000000000000000000000000000000000000000000000000000000000000000000000000000010000000000000000000000000000000000000000000000000000000000000000000000000000000000000000000000000000000 :
b0b00 ;
b0b1 <
b0b000000 =
b0b000000000000000 H
b0b000000 I
b0b000000000000000000000000 J
b0b0000000000000000000000000000000000000000000000000000000000000000 K
b0b000000 L
b0b1111111111111111111111111111111111111111111111111111111111111110 Q
b0b000000 R
b0b0000000000000000000000000000000000000000000000000000000000000000 Z
b0b000000 [
b0b000000000000000000000000 \
b0b000000 ]
b0b000000000000000 a
b0b000000 b
b0b0000 h
b0b000000000000000000000000 i
b0b00000000 j
b0b0 k
b0b00000000 n
b0b0 o
b0b000000000000000000000000 q
b0b0000 r

#50
b0b0 '
#100
b0b1 '

b0b000010 X
b0b1111111111111111111111111111111111111111111111111111111111111110 Z
b0b000001 [

#150
b0b0 '
#200
b0b1 '


#250
b0b0 '
#300
b0b1 '

b0b11 +
b0b00001011111011101111100100110111 -
b0b00000001001010010000100110110011 3
b0b101000010111110111011111001001101110000000000000000000000000000000011001000000000000000010000000000000000000000101111101110111100000000000001011001000000000000000000000 5
b0b1 6
b0b001000000010010100100001001101100110000000000000000000000000000010011001110010100100000100000010000010000000000000000000000000000000000000001010000000000000000000000000 8
b0b00000000000000000000000000000000000001011111011101111100100110111000000010010100100001001101100111 9
b0b101000010111110111011111001001101110000000000000000000000000000000011001000000000000000010000000000000000000000101111101110111100000000000001011001000000000000000000000001000000010010100100001001101100110000000000000000000000000000010011001110010100100000100000010000010000000000000000000000000000000000000001010000000000000000000000000 :
b0b100111001010010 H
b0b000010000001000001000000 J
b0b000010 V
b0b000001000000000000000000 \
b0b100100000000000 a
b0b000001 e
b0b000010000001000001000000 i
b0b000001000000000000000000 q

#350
b0b0 '
#400
b0b1 '


#450
b0b0 '
#500
b0b1 '


#550
b0b0 '
#600
b0b1 '

b0b00 +
b0b00000000000000000000000000001000 ,
b0b00000010000010011010100100000011 -
b0b00000101010010101010000000100011 3
b0b010000000100000100110101001000000110000000000000000000000000000100011001010011000000000010000000000000000000000000000000000000000000010000010100010000000000000000000000 5
b0b011000001010100101010100000001000110000000000000000000000000000110010000010101101000000000000000000000000000000000000000000000000000100000010101010000000000000000000000 8
b0b00000000000000000000000000001000000000010000010011010100100000011000001010100101010100000001000111 9
b0b010000000100000100110101001000000110000000000000000000000000000100011001010011000000000010000000000000000000000000000000000000000000010000010100010000000000000000000000011000001010100101010100000001000110000000000000000000000000000110010000010101101000000000000000000000000000000000000000000000000000100000010101010000000000000000000000 :
b0b10 ;
b0b000001010110100 H
b0b000000000000000000000000 J
b0b000000 V
b0b100101001100000 a
b0b000000000000000000000000 i

#650
b0b0 '
#700
b0b1 '


#750
b0b0 '
#800
b0b1 '


#850
b0b0 '
#900
b0b1 '

