vcd/test_decode.vcd
$date
  Thu Aug 11 17:56:30 2022
$end
$version
  PyMTL 3 (Mamba)
$end
$timescale
 10ps
$end

$scope module top $end
  $var reg 1 # bank_empty $end
  $var reg 104 $ commit_out $end
  $var reg 76 % op_complete $end
  $var reg 5 & rob_tail $end
  $var reg 1 ' clk $end
  $var reg 48 ! uop1_entry $end
  $var reg 260 ( write_in $end
  $var reg 1 ) reset $end
  $var reg 4 * internal_rob_head $end
  $var reg 1 + bank_full $end
  $var reg 48 " uop2_entry $end
  $var reg 4 , internal_rob_tail $end
$upscope $end
$enddefinitions $end

b0b000000000000000000000000000000000000000000000000 !
b0b000000000000000000000000000000000000000000000000 "
b0b0 #
b0b00000000000000000000000000000000000000000000000000000000000000000000000000000000000000000000000000000000 $
b0b0000000000000000000000000000000000000000000000000000000000000000000000000000 %
b0b00000 &
b0b0 '
b0b00000000000000000000000000000000000000000000000000000000000000000000000000000000000000000000000000000000000000000000000000000000000000000000000000000000000000000000000000000000000000000000000000000000000000000000000000000000000000000000000000000000000000000000 (
b0b0 )
b0b0000 *
b0b0 +
b0b0000 ,

#0
b0b1 '

b0b1 #
b0b00000000000000000000000000000000000000000000000000000000000000000000000000000000000000000000000000000000000000000000000000000000000000000000000000000000000000000000000000000000000000000000000000000000000000000000000000000000000000000000000000000000000000000000 (
b0b1 )
b0b0000 *
b0b0 +
b0b0000 ,

#50
b0b0 '
#100
b0b1 '


#150
b0b0 '
#200
b0b1 '


#250
b0b0 '
#300
b0b1 '

b0b00000000000000000000000000000000000000000001000000000000000000000000000000000000000000000000000000000000000000000000000000000000000000000000000000000000000000000000000000000100000000000000000000000000000000000000000000000000000000000000000000000000000000000000 (
b0b0 )

#350
b0b0 '
#400
b0b1 '

