vcd/test_decode.vcd
$date
  Tue Aug 30 13:46:26 2022
$end
$version
  PyMTL 3 (Mamba)
$end
$timescale
 10ps
$end

$scope module top $end
  $var reg 218 $ instr_bank(12) $end
  $var reg 218 % instr_bank(6) $end
  $var reg 218 & instr_bank_next(3) $end
  $var reg 218 ' instr_bank_next(1) $end
  $var reg 218 ( instr_bank_next(14) $end
  $var reg 218 ) instr_bank(5) $end
  $var reg 218 * instr_bank_next(4) $end
  $var reg 218 + instr_bank_next(15) $end
  $var reg 218 , instr_bank(4) $end
  $var reg 218 - instr_bank_next(5) $end
  $var reg 150 . op_complete $end
  $var reg 218 / instr_bank(3) $end
  $var reg 218 0 instr_bank_next(6) $end
  $var reg 218 1 instr_bank(15) $end
  $var reg 4 2 internal_rob_head $end
  $var reg 1 3 clk $end
  $var reg 1 4 reset $end
  $var reg 218 5 instr_bank(2) $end
  $var reg 218 6 instr_bank_next(7) $end
  $var reg 218 7 instr_bank(13) $end
  $var reg 4 8 internal_rob_head_next $end
  $var reg 218 9 instr_bank_next(2) $end
  $var reg 218 : instr_bank_next(8) $end
  $var reg 218 ; instr_bank(11) $end
  $var reg 336 < write_in $end
  $var reg 4 = internal_rob_tail $end
  $var reg 218 > instr_bank(1) $end
  $var reg 218 ? commit_out $end
  $var reg 218 @ instr_bank_next(0) $end
  $var reg 218 A instr_bank_next(9) $end
  $var reg 4 B internal_rob_tail_next $end
  $var reg 93 ! uop1_entry $end
  $var reg 1 C bank_full $end
  $var reg 218 D instr_bank(10) $end
  $var reg 218 E instr_bank_next(10) $end
  $var reg 1 F bank_empty $end
  $var reg 93 G uop1_entry_next $end
  $var reg 5 H rob_tail $end
  $var reg 218 I instr_bank(9) $end
  $var reg 218 J instr_bank_next(11) $end
  $var reg 93 " uop2_entry $end
  $var reg 218 K instr_bank(14) $end
  $var reg 218 L instr_bank(8) $end
  $var reg 218 M instr_bank(0) $end
  $var reg 218 N instr_bank_next(12) $end
  $var reg 93 O uop2_entry_next $end
  $var reg 36 P br_update.msg $end
  $var reg 1 Q br_update.en $end
  $var reg 218 R instr_bank(7) $end
  $var reg 1 # br_update.rdy $end
  $var reg 218 S instr_bank_next(13) $end
$upscope $end
$enddefinitions $end

b0b000000000000000000000000000000000000000000000000000000000000000000000000000000000000000000000 !
b0b000000000000000000000000000000000000000000000000000000000000000000000000000000000000000000000 "
b0b0 #
b0b00000000000000000000000000000000000000000000000000000000000000000000000000000000000000000000000000000000000000000000000000000000000000000000000000000000000000000000000000000000000000000000000000000000000000000000000000 $
b0b00000000000000000000000000000000000000000000000000000000000000000000000000000000000000000000000000000000000000000000000000000000000000000000000000000000000000000000000000000000000000000000000000000000000000000000000000 %
b0b00000000000000000000000000000000000000000000000000000000000000000000000000000000000000000000000000000000000000000000000000000000000000000000000000000000000000000000000000000000000000000000000000000000000000000000000000 &
b0b00000000000000000000000000000000000000000000000000000000000000000000000000000000000000000000000000000000000000000000000000000000000000000000000000000000000000000000000000000000000000000000000000000000000000000000000000 '
b0b00000000000000000000000000000000000000000000000000000000000000000000000000000000000000000000000000000000000000000000000000000000000000000000000000000000000000000000000000000000000000000000000000000000000000000000000000 (
b0b00000000000000000000000000000000000000000000000000000000000000000000000000000000000000000000000000000000000000000000000000000000000000000000000000000000000000000000000000000000000000000000000000000000000000000000000000 )
b0b00000000000000000000000000000000000000000000000000000000000000000000000000000000000000000000000000000000000000000000000000000000000000000000000000000000000000000000000000000000000000000000000000000000000000000000000000 *
b0b00000000000000000000000000000000000000000000000000000000000000000000000000000000000000000000000000000000000000000000000000000000000000000000000000000000000000000000000000000000000000000000000000000000000000000000000000 +
b0b00000000000000000000000000000000000000000000000000000000000000000000000000000000000000000000000000000000000000000000000000000000000000000000000000000000000000000000000000000000000000000000000000000000000000000000000000 ,
b0b00000000000000000000000000000000000000000000000000000000000000000000000000000000000000000000000000000000000000000000000000000000000000000000000000000000000000000000000000000000000000000000000000000000000000000000000000 -
b0b000000000000000000000000000000000000000000000000000000000000000000000000000000000000000000000000000000000000000000000000000000000000000000000000000000 .
b0b00000000000000000000000000000000000000000000000000000000000000000000000000000000000000000000000000000000000000000000000000000000000000000000000000000000000000000000000000000000000000000000000000000000000000000000000000 /
b0b00000000000000000000000000000000000000000000000000000000000000000000000000000000000000000000000000000000000000000000000000000000000000000000000000000000000000000000000000000000000000000000000000000000000000000000000000 0
b0b00000000000000000000000000000000000000000000000000000000000000000000000000000000000000000000000000000000000000000000000000000000000000000000000000000000000000000000000000000000000000000000000000000000000000000000000000 1
b0b0000 2
b0b0 3
b0b0 4
b0b00000000000000000000000000000000000000000000000000000000000000000000000000000000000000000000000000000000000000000000000000000000000000000000000000000000000000000000000000000000000000000000000000000000000000000000000000 5
b0b00000000000000000000000000000000000000000000000000000000000000000000000000000000000000000000000000000000000000000000000000000000000000000000000000000000000000000000000000000000000000000000000000000000000000000000000000 6
b0b00000000000000000000000000000000000000000000000000000000000000000000000000000000000000000000000000000000000000000000000000000000000000000000000000000000000000000000000000000000000000000000000000000000000000000000000000 7
b0b0000 8
b0b00000000000000000000000000000000000000000000000000000000000000000000000000000000000000000000000000000000000000000000000000000000000000000000000000000000000000000000000000000000000000000000000000000000000000000000000000 9
b0b00000000000000000000000000000000000000000000000000000000000000000000000000000000000000000000000000000000000000000000000000000000000000000000000000000000000000000000000000000000000000000000000000000000000000000000000000 :
b0b00000000000000000000000000000000000000000000000000000000000000000000000000000000000000000000000000000000000000000000000000000000000000000000000000000000000000000000000000000000000000000000000000000000000000000000000000 ;
b0b000000000000000000000000000000000000000000000000000000000000000000000000000000000000000000000000000000000000000000000000000000000000000000000000000000000000000000000000000000000000000000000000000000000000000000000000000000000000000000000000000000000000000000000000000000000000000000000000000000000000000000000000000000000000000000000000 <
b0b0000 =
b0b00000000000000000000000000000000000000000000000000000000000000000000000000000000000000000000000000000000000000000000000000000000000000000000000000000000000000000000000000000000000000000000000000000000000000000000000000 >
b0b00000000000000000000000000000000000000000000000000000000000000000000000000000000000000000000000000000000000000000000000000000000000000000000000000000000000000000000000000000000000000000000000000000000000000000000000000 ?
b0b00000000000000000000000000000000000000000000000000000000000000000000000000000000000000000000000000000000000000000000000000000000000000000000000000000000000000000000000000000000000000000000000000000000000000000000000000 @
b0b00000000000000000000000000000000000000000000000000000000000000000000000000000000000000000000000000000000000000000000000000000000000000000000000000000000000000000000000000000000000000000000000000000000000000000000000000 A
b0b0000 B
b0b0 C
b0b00000000000000000000000000000000000000000000000000000000000000000000000000000000000000000000000000000000000000000000000000000000000000000000000000000000000000000000000000000000000000000000000000000000000000000000000000 D
b0b00000000000000000000000000000000000000000000000000000000000000000000000000000000000000000000000000000000000000000000000000000000000000000000000000000000000000000000000000000000000000000000000000000000000000000000000000 E
b0b0 F
b0b000000000000000000000000000000000000000000000000000000000000000000000000000000000000000000000 G
b0b00000 H
b0b00000000000000000000000000000000000000000000000000000000000000000000000000000000000000000000000000000000000000000000000000000000000000000000000000000000000000000000000000000000000000000000000000000000000000000000000000 I
b0b00000000000000000000000000000000000000000000000000000000000000000000000000000000000000000000000000000000000000000000000000000000000000000000000000000000000000000000000000000000000000000000000000000000000000000000000000 J
b0b00000000000000000000000000000000000000000000000000000000000000000000000000000000000000000000000000000000000000000000000000000000000000000000000000000000000000000000000000000000000000000000000000000000000000000000000000 K
b0b00000000000000000000000000000000000000000000000000000000000000000000000000000000000000000000000000000000000000000000000000000000000000000000000000000000000000000000000000000000000000000000000000000000000000000000000000 L
b0b00000000000000000000000000000000000000000000000000000000000000000000000000000000000000000000000000000000000000000000000000000000000000000000000000000000000000000000000000000000000000000000000000000000000000000000000000 M
b0b00000000000000000000000000000000000000000000000000000000000000000000000000000000000000000000000000000000000000000000000000000000000000000000000000000000000000000000000000000000000000000000000000000000000000000000000000 N
b0b000000000000000000000000000000000000000000000000000000000000000000000000000000000000000000000 O
b0b000000000000000000000000000000000000 P
b0b0 Q
b0b00000000000000000000000000000000000000000000000000000000000000000000000000000000000000000000000000000000000000000000000000000000000000000000000000000000000000000000000000000000000000000000000000000000000000000000000000 R
b0b00000000000000000000000000000000000000000000000000000000000000000000000000000000000000000000000000000000000000000000000000000000000000000000000000000000000000000000000000000000000000000000000000000000000000000000000000 S

#0
b0b1 3

b0b1 #
b0b1 4
b0b00000000000000000000000000000000000000000000000000000000000000000000000000000000000000000000000000000000000000000000000000000000000000000000000000000000000000000000000000000000000000000000000000000000000000000000000000 5
b0b0000 8
b0b00000000000000000000000000000000000000000000000000000000000000000000000000000000000000000000000000000000000000000000000000000000000000000000000000000000000000000000000000000000000000000000000000000000000000000000000000 9
b0b000000000000000000000000000000000000000000000000000000000000000000000000000000000000000000000000000000000000000000000000000000000000000000000000000000000000000000000000000000000000000000000000000000000000000000000000000000000000000000000000000000000000000000000000000000000000000000000000000000000000000000000000000000000000000000000000 <
b0b0000 =
b0b00000000000000000000000000000000000000000000000000000000000000000000000000000000000000000000000000000000000000000000000000000000000000000000000000000000000000000000000000000000000000000000000000000000000000000000000000 >
b0b0000 B
b0b0 C
b0b00000000000000000000000000000000000000000000000000000000000000000000000000000000000000000000000000000000000000000000000000000000000000000000000000000000000000000000000000000000000000000000000000000000000000000000000000 D
b0b1 F
b0b000000000000000000000000000000000000000000000000000000000000000000000000000000000000000000000 G
b0b00000 H
b0b00000000000000000000000000000000000000000000000000000000000000000000000000000000000000000000000000000000000000000000000000000000000000000000000000000000000000000000000000000000000000000000000000000000000000000000000000 I
b0b000000000000000000000000000000000000000000000000000000000000000000000000000000000000000000000 O
b0b000000000000000000000000000000000000 P
b0b0 Q
b0b00000000000000000000000000000000000000000000000000000000000000000000000000000000000000000000000000000000000000000000000000000000000000000000000000000000000000000000000000000000000000000000000000000000000000000000000000 R

#50
b0b0 3
#100
b0b1 3


#150
b0b0 3
#200
b0b1 3


#250
b0b0 3
#300
b0b1 3

b0b0 4
b0b000000000000000000000000000000000000000000000000000000000000000000010000000000000000000000000000000000000000000000000000000000000000000000000000000000000000000000000000000000000000000000000000000000000000000000000000000000000000000000010000000000000000000000000000000000000000000000000000000000000000000000000000000000000000000000000000 <
b0b00000000000000000000000000000000110000000000000000000000000000000000000000000000000000000000000000000000000000000000000000000110000000000000000000000000000000000000000000000000000000000000000000000000000000000000000000 @
b0b0001 B

#350
b0b0 3
#400
b0b1 3

