vcd/test_decode.vcd
$date
  Thu Aug  4 13:43:59 2022
$end
$version
  PyMTL 3 (Mamba)
$end
$timescale
 10ps
$end

$scope module top $end
  $var reg 1 " reset $end
  $var reg 72 , fetch_packet $end
  $var reg 32 $ inst1 $end
  $var reg 248 - dual_uop $end
  $var reg 32 ' inst2 $end
  $var reg 1 % clk $end
  $scope module d1 $end
    $var reg 2 ( pregs_busy $end
    $var reg 8 ! pc $end
    $var reg 1 % clk $end
    $var reg 124 + uop $end
    $var reg 1 " reset $end
    $var reg 24 . pregs $end
    $var reg 32 $ inst $end
  $upscope $end
  $scope module register_rename $end
    $var reg 64 * busy_table $end
    $var reg 1 % clk $end
    $var reg 2 ( inst1_pregs_busy $end
    $var reg 2 # inst2_pregs_busy $end
    $var reg 1 " reset $end
    $var reg 15 / inst2_lregs $end
    $var reg 64 ) free_list $end
    $var reg 15 0 inst1_lregs $end
    $var reg 24 1 inst2_pregs $end
    $var reg 24 2 inst1_pregs $end
  $upscope $end
  $scope module d2 $end
    $var reg 24 3 pregs $end
    $var reg 32 ' inst $end
    $var reg 2 # pregs_busy $end
    $var reg 8 ! pc $end
    $var reg 124 & uop $end
    $var reg 1 " reset $end
    $var reg 1 % clk $end
  $upscope $end
$upscope $end
$enddefinitions $end

b0b00000000 !
b0b0 "
b0b00 #
b0b00000000000000000000000000000000 $
b0b0 %
b0b0000000000000000000000000000000000000000000000000000000000000000000000000000000000000000000000000000000000000000000000000000 &
b0b00000000000000000000000000000000 '
b0b00 (
b0b0000000000000000000000000000000000000000000000000000000000000000 )
b0b0000000000000000000000000000000000000000000000000000000000000000 *
b0b0000000000000000000000000000000000000000000000000000000000000000000000000000000000000000000000000000000000000000000000000000 +
b0b000000000000000000000000000000000000000000000000000000000000000000000000 ,
b0b00000000000000000000000000000000000000000000000000000000000000000000000000000000000000000000000000000000000000000000000000000000000000000000000000000000000000000000000000000000000000000000000000000000000000000000000000000000000000000000000000000000 -
b0b000000000000000000000000 .
b0b000000000000000 /
b0b000000000000000 0
b0b000000000000000000000000 1
b0b000000000000000000000000 2
b0b000000000000000000000000 3

#0
b0b1 %

b0b1 "
b0b0000000000000000000000000000000000000000010010000000000000000000000000000000000000000000000000000000000000000000000000010000 &
b0b00000000000000000000000000000000 '
b0b00 (
b0b1111111111111111111111111111111111111111111111111111111111111110 )
b0b0000000000000000000000000000000000000000000010000000000000000000000000000000000000000000000000000000000000000000000000010000 +
b0b000000000000000000000000000000000000000000000000000000000000000000000000 ,
b0b00000000000000000000000000000000000000000000100000000000000000000000000000000000000000000000000000000000000000000000000100000000000000000000000000000000000000000000010010000000000000000000000000000000000000000000000000000000000000000000000000010000 -
b0b000000000000000000000000 .
b0b000000000000000 /
b0b000000000000000000000000 1

#50
b0b0 %
#100
b0b1 %


#150
b0b0 %
#200
b0b1 %


#250
b0b0 %
#300
b0b1 %

b0b11 #
b0b00001011111011101111100100110111 $
b0b0000000000010010100100001001101100110000010011001110010100100000100000010000010000001100000000000000000000000000000000010000 &
b0b00000001001010010000100110110011 '
b0b0000000010111110111011111001001101110000000011001000000000000000010000000000000000000000001011111011101111000000000000010000 +
b0b000010111110111011111001001101110000000100101001000010011011001100000000 ,
b0b00000000101111101110111110010011011100000000110010000000000000000100000000000000000000000010111110111011110000000000000100000000000000010010100100001001101100110000010011001110010100100000100000010000010000001100000000000000000000000000000000010000 -
b0b000001000000000000000000 .
b0b100111001010010 /
b0b100100000000000 0
b0b000010000001000001000000 1
b0b000001000000000000000000 2
b0b000010000001000001000000 3

#350
b0b0 %
#400
b0b1 %


#450
b0b0 %
#500
b0b1 %


#550
b0b0 %
#600
b0b1 %

b0b00001000 !
b0b00 #
b0b00000010000010011010100100000011 $
b0b0000000001010100101010100000001000110000110010000010101101000000000000000000000000000000000000000000000000000001000000100000 &
b0b00000101010010101010000000100011 '
b0b0000000000100000100110101001000000110000100011001010011000000000010000000000000000000000000000000000000000000000100000100000 +
b0b000000100000100110101001000000110000010101001010101000000010001100001000 ,
b0b00000000001000001001101010010000001100001000110010100110000000000100000000000000000000000000000000000000000000001000001000000000000001010100101010100000001000110000110010000010101101000000000000000000000000000000000000000000000000000001000000100000 -
b0b000001010110100 /
b0b100101001100000 0
b0b000000000000000000000000 1
b0b000000000000000000000000 3

#650
b0b0 %
#700
b0b1 %


#750
b0b0 %
#800
b0b1 %


#850
b0b0 %
#900
b0b1 %

