vcd/test_decode.vcd
$date
  Sun Aug 28 17:02:55 2022
$end
$version
  PyMTL 3 (Mamba)
$end
$timescale
 10ps
$end

$scope module top $end
  $var reg 202 # instr_bank_next(2) $end
  $var reg 202 $ instr_bank(1) $end
  $var reg 202 % instr_bank(12) $end
  $var reg 202 & instr_bank_next(13) $end
  $var reg 202 ' instr_bank_next(3) $end
  $var reg 202 ( instr_bank(2) $end
  $var reg 202 ) instr_bank(13) $end
  $var reg 202 * instr_bank_next(14) $end
  $var reg 202 + instr_bank_next(4) $end
  $var reg 202 , instr_bank(3) $end
  $var reg 202 - instr_bank(14) $end
  $var reg 202 . instr_bank_next(15) $end
  $var reg 202 / instr_bank_next(5) $end
  $var reg 202 0 instr_bank(4) $end
  $var reg 150 1 op_complete $end
  $var reg 202 2 instr_bank(15) $end
  $var reg 202 3 instr_bank(11) $end
  $var reg 202 4 instr_bank_next(6) $end
  $var reg 202 5 instr_bank(5) $end
  $var reg 4 6 internal_rob_head $end
  $var reg 1 7 clk $end
  $var reg 202 8 instr_bank_next(7) $end
  $var reg 202 9 instr_bank(6) $end
  $var reg 1 : reset $end
  $var reg 4 ; internal_rob_head_next $end
  $var reg 336 < write_in $end
  $var reg 202 = instr_bank_next(8) $end
  $var reg 202 > instr_bank(7) $end
  $var reg 4 ? internal_rob_tail $end
  $var reg 202 @ commit_out $end
  $var reg 202 A instr_bank_next(9) $end
  $var reg 202 B instr_bank(8) $end
  $var reg 4 C internal_rob_tail_next $end
  $var reg 1 D bank_full $end
  $var reg 85 E uop2_entry_next $end
  $var reg 85 ! uop1_entry $end
  $var reg 202 F instr_bank_next(10) $end
  $var reg 202 G instr_bank(9) $end
  $var reg 1 H bank_empty $end
  $var reg 85 I uop1_entry_next $end
  $var reg 5 J rob_tail $end
  $var reg 202 K instr_bank_next(0) $end
  $var reg 202 L instr_bank_next(11) $end
  $var reg 202 M instr_bank(10) $end
  $var reg 85 " uop2_entry $end
  $var reg 202 N instr_bank_next(1) $end
  $var reg 202 O instr_bank(0) $end
  $var reg 202 P instr_bank_next(12) $end
$upscope $end
$enddefinitions $end

b0b0000000000000000000000000000000000000000000000000000000000000000000000000000000000000 !
b0b0000000000000000000000000000000000000000000000000000000000000000000000000000000000000 "
b0b0000000000000000000000000000000000000000000000000000000000000000000000000000000000000000000000000000000000000000000000000000000000000000000000000000000000000000000000000000000000000000000000000000000000 #
b0b0000000000000000000000000000000000000000000000000000000000000000000000000000000000000000000000000000000000000000000000000000000000000000000000000000000000000000000000000000000000000000000000000000000000 $
b0b0000000000000000000000000000000000000000000000000000000000000000000000000000000000000000000000000000000000000000000000000000000000000000000000000000000000000000000000000000000000000000000000000000000000 %
b0b0000000000000000000000000000000000000000000000000000000000000000000000000000000000000000000000000000000000000000000000000000000000000000000000000000000000000000000000000000000000000000000000000000000000 &
b0b0000000000000000000000000000000000000000000000000000000000000000000000000000000000000000000000000000000000000000000000000000000000000000000000000000000000000000000000000000000000000000000000000000000000 '
b0b0000000000000000000000000000000000000000000000000000000000000000000000000000000000000000000000000000000000000000000000000000000000000000000000000000000000000000000000000000000000000000000000000000000000 (
b0b0000000000000000000000000000000000000000000000000000000000000000000000000000000000000000000000000000000000000000000000000000000000000000000000000000000000000000000000000000000000000000000000000000000000 )
b0b0000000000000000000000000000000000000000000000000000000000000000000000000000000000000000000000000000000000000000000000000000000000000000000000000000000000000000000000000000000000000000000000000000000000 *
b0b0000000000000000000000000000000000000000000000000000000000000000000000000000000000000000000000000000000000000000000000000000000000000000000000000000000000000000000000000000000000000000000000000000000000 +
b0b0000000000000000000000000000000000000000000000000000000000000000000000000000000000000000000000000000000000000000000000000000000000000000000000000000000000000000000000000000000000000000000000000000000000 ,
b0b0000000000000000000000000000000000000000000000000000000000000000000000000000000000000000000000000000000000000000000000000000000000000000000000000000000000000000000000000000000000000000000000000000000000 -
b0b0000000000000000000000000000000000000000000000000000000000000000000000000000000000000000000000000000000000000000000000000000000000000000000000000000000000000000000000000000000000000000000000000000000000 .
b0b0000000000000000000000000000000000000000000000000000000000000000000000000000000000000000000000000000000000000000000000000000000000000000000000000000000000000000000000000000000000000000000000000000000000 /
b0b0000000000000000000000000000000000000000000000000000000000000000000000000000000000000000000000000000000000000000000000000000000000000000000000000000000000000000000000000000000000000000000000000000000000 0
b0b000000000000000000000000000000000000000000000000000000000000000000000000000000000000000000000000000000000000000000000000000000000000000000000000000000 1
b0b0000000000000000000000000000000000000000000000000000000000000000000000000000000000000000000000000000000000000000000000000000000000000000000000000000000000000000000000000000000000000000000000000000000000 2
b0b0000000000000000000000000000000000000000000000000000000000000000000000000000000000000000000000000000000000000000000000000000000000000000000000000000000000000000000000000000000000000000000000000000000000 3
b0b0000000000000000000000000000000000000000000000000000000000000000000000000000000000000000000000000000000000000000000000000000000000000000000000000000000000000000000000000000000000000000000000000000000000 4
b0b0000000000000000000000000000000000000000000000000000000000000000000000000000000000000000000000000000000000000000000000000000000000000000000000000000000000000000000000000000000000000000000000000000000000 5
b0b0000 6
b0b0 7
b0b0000000000000000000000000000000000000000000000000000000000000000000000000000000000000000000000000000000000000000000000000000000000000000000000000000000000000000000000000000000000000000000000000000000000 8
b0b0000000000000000000000000000000000000000000000000000000000000000000000000000000000000000000000000000000000000000000000000000000000000000000000000000000000000000000000000000000000000000000000000000000000 9
b0b0 :
b0b0000 ;
b0b000000000000000000000000000000000000000000000000000000000000000000000000000000000000000000000000000000000000000000000000000000000000000000000000000000000000000000000000000000000000000000000000000000000000000000000000000000000000000000000000000000000000000000000000000000000000000000000000000000000000000000000000000000000000000000000000 <
b0b0000000000000000000000000000000000000000000000000000000000000000000000000000000000000000000000000000000000000000000000000000000000000000000000000000000000000000000000000000000000000000000000000000000000 =
b0b0000000000000000000000000000000000000000000000000000000000000000000000000000000000000000000000000000000000000000000000000000000000000000000000000000000000000000000000000000000000000000000000000000000000 >
b0b0000 ?
b0b0000000000000000000000000000000000000000000000000000000000000000000000000000000000000000000000000000000000000000000000000000000000000000000000000000000000000000000000000000000000000000000000000000000000 @
b0b0000000000000000000000000000000000000000000000000000000000000000000000000000000000000000000000000000000000000000000000000000000000000000000000000000000000000000000000000000000000000000000000000000000000 A
b0b0000000000000000000000000000000000000000000000000000000000000000000000000000000000000000000000000000000000000000000000000000000000000000000000000000000000000000000000000000000000000000000000000000000000 B
b0b0000 C
b0b0 D
b0b0000000000000000000000000000000000000000000000000000000000000000000000000000000000000 E
b0b0000000000000000000000000000000000000000000000000000000000000000000000000000000000000000000000000000000000000000000000000000000000000000000000000000000000000000000000000000000000000000000000000000000000 F
b0b0000000000000000000000000000000000000000000000000000000000000000000000000000000000000000000000000000000000000000000000000000000000000000000000000000000000000000000000000000000000000000000000000000000000 G
b0b0 H
b0b0000000000000000000000000000000000000000000000000000000000000000000000000000000000000 I
b0b00000 J
b0b0000000000000000000000000000000000000000000000000000000000000000000000000000000000000000000000000000000000000000000000000000000000000000000000000000000000000000000000000000000000000000000000000000000000 K
b0b0000000000000000000000000000000000000000000000000000000000000000000000000000000000000000000000000000000000000000000000000000000000000000000000000000000000000000000000000000000000000000000000000000000000 L
b0b0000000000000000000000000000000000000000000000000000000000000000000000000000000000000000000000000000000000000000000000000000000000000000000000000000000000000000000000000000000000000000000000000000000000 M
b0b0000000000000000000000000000000000000000000000000000000000000000000000000000000000000000000000000000000000000000000000000000000000000000000000000000000000000000000000000000000000000000000000000000000000 N
b0b0000000000000000000000000000000000000000000000000000000000000000000000000000000000000000000000000000000000000000000000000000000000000000000000000000000000000000000000000000000000000000000000000000000000 O
b0b0000000000000000000000000000000000000000000000000000000000000000000000000000000000000000000000000000000000000000000000000000000000000000000000000000000000000000000000000000000000000000000000000000000000 P

#0
b0b1 7

b0b0000000000000000000000000000000000000000000000000000000000000000000000000000000000000000000000000000000000000000000000000000000000000000000000000000000000000000000000000000000000000000000000000000000000 8
b0b1 :
b0b0000 ;
b0b000000000000000000000000000000000000000000000000000000000000000000000000000000000000000000000000000000000000000000000000000000000000000000000000000000000000000000000000000000000000000000000000000000000000000000000000000000000000000000000000000000000000000000000000000000000000000000000000000000000000000000000000000000000000000000000000 <
b0b0000000000000000000000000000000000000000000000000000000000000000000000000000000000000000000000000000000000000000000000000000000000000000000000000000000000000000000000000000000000000000000000000000000000 =
b0b0000 ?
b0b0000000000000000000000000000000000000000000000000000000000000000000000000000000000000000000000000000000000000000000000000000000000000000000000000000000000000000000000000000000000000000000000000000000000 @
b0b0000 C
b0b0 D
b0b0000000000000000000000000000000000000000000000000000000000000000000000000000000000000 E
b0b0000000000000000000000000000000000000000000000000000000000000000000000000000000000000000000000000000000000000000000000000000000000000000000000000000000000000000000000000000000000000000000000000000000000 F
b0b1 H
b0b0000000000000000000000000000000000000000000000000000000000000000000000000000000000000 I
b0b00000 J
b0b0000000000000000000000000000000000000000000000000000000000000000000000000000000000000000000000000000000000000000000000000000000000000000000000000000000000000000000000000000000000000000000000000000000000 K

#50
b0b0 7
#100
b0b1 7


#150
b0b0 7
#200
b0b1 7


#250
b0b0 7
#300
b0b1 7

b0b0 :
b0b000000000000000000000000000000000000000000000000000000000000000000010000000000000000000000000000000000000000000000000000000000000000000000000000000000000000000000000000000000000000000000000000000000000000000000000000000000000000000000010000000000000000000000000000000000000000000000000000000000000000000000000000000000000000000000000000 <
b0b0001 C
b0b0000000000000000000000000000000011000000000000000000000000000000000000000000000000000000000000000000000000000000000001100000000000000000000000000000000000000000000000000000000000000000000000000000000000 K

#350
b0b0 7
#400
b0b1 7

