vcd/test_decode.vcd
$date
  Sat Aug 20 13:44:37 2022
$end
$version
  PyMTL 3 (Mamba)
$end
$timescale
 10ps
$end

$scope module top $end
  $var reg 106 # instr_bank_next(6) $end
  $var reg 106 $ instr_bank(6) $end
  $var reg 106 % instr_bank(14) $end
  $var reg 106 & instr_bank(15) $end
  $var reg 106 ' instr_bank(7) $end
  $var reg 49 ! uop1_entry $end
  $var reg 106 ( instr_bank_next(7) $end
  $var reg 106 ) instr_bank(0) $end
  $var reg 49 " uop2_entry $end
  $var reg 106 * instr_bank_next(12) $end
  $var reg 106 + instr_bank_next(0) $end
  $var reg 106 , instr_bank_next(1) $end
  $var reg 106 - instr_bank(10) $end
  $var reg 106 . instr_bank_next(8) $end
  $var reg 4 / internal_rob_head $end
  $var reg 1 0 bank_full $end
  $var reg 106 1 instr_bank(4) $end
  $var reg 106 2 instr_bank_next(10) $end
  $var reg 106 3 instr_bank_next(11) $end
  $var reg 106 4 instr_bank(1) $end
  $var reg 5 5 rob_tail $end
  $var reg 256 6 write_in $end
  $var reg 106 7 instr_bank(13) $end
  $var reg 1 8 clk $end
  $var reg 4 9 internal_rob_tail $end
  $var reg 106 : instr_bank_next(2) $end
  $var reg 106 ; instr_bank_next(13) $end
  $var reg 106 < instr_bank(9) $end
  $var reg 106 = instr_bank_next(3) $end
  $var reg 4 > internal_rob_tail_next $end
  $var reg 49 ? uop2_entry_next $end
  $var reg 106 @ instr_bank_next(14) $end
  $var reg 106 A instr_bank(2) $end
  $var reg 1 B reset $end
  $var reg 106 C instr_bank(11) $end
  $var reg 1 D bank_empty $end
  $var reg 106 E instr_bank(5) $end
  $var reg 106 F instr_bank_next(4) $end
  $var reg 106 G commit_out $end
  $var reg 106 H instr_bank(8) $end
  $var reg 49 I uop1_entry_next $end
  $var reg 106 J instr_bank(3) $end
  $var reg 106 K instr_bank(12) $end
  $var reg 106 L instr_bank_next(5) $end
  $var reg 106 M instr_bank_next(15) $end
  $var reg 106 N instr_bank_next(9) $end
  $var reg 4 O internal_rob_head_next $end
  $var reg 76 P op_complete $end
$upscope $end
$enddefinitions $end

b0b0000000000000000000000000000000000000000000000000 !
b0b0000000000000000000000000000000000000000000000000 "
b0b0000000000000000000000000000000000000000000000000000000000000000000000000000000000000000000000000000000000 #
b0b0000000000000000000000000000000000000000000000000000000000000000000000000000000000000000000000000000000000 $
b0b0000000000000000000000000000000000000000000000000000000000000000000000000000000000000000000000000000000000 %
b0b0000000000000000000000000000000000000000000000000000000000000000000000000000000000000000000000000000000000 &
b0b0000000000000000000000000000000000000000000000000000000000000000000000000000000000000000000000000000000000 '
b0b0000000000000000000000000000000000000000000000000000000000000000000000000000000000000000000000000000000000 (
b0b0000000000000000000000000000000000000000000000000000000000000000000000000000000000000000000000000000000000 )
b0b0000000000000000000000000000000000000000000000000000000000000000000000000000000000000000000000000000000000 *
b0b0000000000000000000000000000000000000000000000000000000000000000000000000000000000000000000000000000000000 +
b0b0000000000000000000000000000000000000000000000000000000000000000000000000000000000000000000000000000000000 ,
b0b0000000000000000000000000000000000000000000000000000000000000000000000000000000000000000000000000000000000 -
b0b0000000000000000000000000000000000000000000000000000000000000000000000000000000000000000000000000000000000 .
b0b0000 /
b0b0 0
b0b0000000000000000000000000000000000000000000000000000000000000000000000000000000000000000000000000000000000 1
b0b0000000000000000000000000000000000000000000000000000000000000000000000000000000000000000000000000000000000 2
b0b0000000000000000000000000000000000000000000000000000000000000000000000000000000000000000000000000000000000 3
b0b0000000000000000000000000000000000000000000000000000000000000000000000000000000000000000000000000000000000 4
b0b00000 5
b0b0000000000000000000000000000000000000000000000000000000000000000000000000000000000000000000000000000000000000000000000000000000000000000000000000000000000000000000000000000000000000000000000000000000000000000000000000000000000000000000000000000000000000000 6
b0b0000000000000000000000000000000000000000000000000000000000000000000000000000000000000000000000000000000000 7
b0b0 8
b0b0000 9
b0b0000000000000000000000000000000000000000000000000000000000000000000000000000000000000000000000000000000000 :
b0b0000000000000000000000000000000000000000000000000000000000000000000000000000000000000000000000000000000000 ;
b0b0000000000000000000000000000000000000000000000000000000000000000000000000000000000000000000000000000000000 <
b0b0000000000000000000000000000000000000000000000000000000000000000000000000000000000000000000000000000000000 =
b0b0000 >
b0b0000000000000000000000000000000000000000000000000 ?
b0b0000000000000000000000000000000000000000000000000000000000000000000000000000000000000000000000000000000000 @
b0b0000000000000000000000000000000000000000000000000000000000000000000000000000000000000000000000000000000000 A
b0b0 B
b0b0000000000000000000000000000000000000000000000000000000000000000000000000000000000000000000000000000000000 C
b0b0 D
b0b0000000000000000000000000000000000000000000000000000000000000000000000000000000000000000000000000000000000 E
b0b0000000000000000000000000000000000000000000000000000000000000000000000000000000000000000000000000000000000 F
b0b0000000000000000000000000000000000000000000000000000000000000000000000000000000000000000000000000000000000 G
b0b0000000000000000000000000000000000000000000000000000000000000000000000000000000000000000000000000000000000 H
b0b0000000000000000000000000000000000000000000000000 I
b0b0000000000000000000000000000000000000000000000000000000000000000000000000000000000000000000000000000000000 J
b0b0000000000000000000000000000000000000000000000000000000000000000000000000000000000000000000000000000000000 K
b0b0000000000000000000000000000000000000000000000000000000000000000000000000000000000000000000000000000000000 L
b0b0000000000000000000000000000000000000000000000000000000000000000000000000000000000000000000000000000000000 M
b0b0000000000000000000000000000000000000000000000000000000000000000000000000000000000000000000000000000000000 N
b0b0000 O
b0b0000000000000000000000000000000000000000000000000000000000000000000000000000 P

#0
b0b1 8

b0b0000 9
b0b0000000000000000000000000000000000000000000000000000000000000000000000000000000000000000000000000000000000 :
b0b0000 >
b0b0000000000000000000000000000000000000000000000000 ?
b0b0000000000000000000000000000000000000000000000000000000000000000000000000000000000000000000000000000000000 @
b0b1 B
b0b0000000000000000000000000000000000000000000000000000000000000000000000000000000000000000000000000000000000 C
b0b1 D
b0b0000000000000000000000000000000000000000000000000000000000000000000000000000000000000000000000000000000000 E
b0b0000000000000000000000000000000000000000000000000 I
b0b0000000000000000000000000000000000000000000000000000000000000000000000000000000000000000000000000000000000 J
b0b0000 O
b0b0000000000000000000000000000000000000000000000000000000000000000000000000000 P

#50
b0b0 8
#100
b0b1 8


#150
b0b0 8
#200
b0b1 8


#250
b0b0 8
#300
b0b1 8

b0b0000000011000000000000000000000000000000000000000000000001100000000000000000000000000000000000000000000000 +
b0b0000000000000000000000000000000000000000000100000000000000000000000000000000000000000000000000000000000000000000000000000000000000000000000000000000000000000000000000000001000000000000000000000000000000000000000000000000000000000000000000000000000000000000 6
b0b0001 >
b0b0 B

#350
b0b0 8
#400
b0b1 8

