vcd/test_decode.vcd
$date
  Sat Aug  6 15:25:55 2022
$end
$version
  PyMTL 3 (Mamba)
$end
$timescale
 10ps
$end

$scope module top $end
  $var reg 262 # write_in $end
  $var reg 1 $ clk $end
  $var reg 12 % op_complete $end
  $var reg 1 & reset $end
  $var reg 19 " uop2_entry $end
  $var reg 5 ' rob_tail $end
  $var reg 19 ! uop1_entry $end
  $var reg 1 ( bank_full $end
  $var reg 4 ) internal_rob_head $end
  $var reg 4 * internal_rob_tail $end
  $var reg 46 + commit_out $end
  $var reg 1 , bank_empty $end
$upscope $end
$enddefinitions $end

b0b0000000000000000000 !
b0b0000000000000000000 "
b0b0000000000000000000000000000000000000000000000000000000000000000000000000000000000000000000000000000000000000000000000000000000000000000000000000000000000000000000000000000000000000000000000000000000000000000000000000000000000000000000000000000000000000000000000 #
b0b0 $
b0b000000000000 %
b0b0 &
b0b00000 '
b0b0 (
b0b0000 )
b0b0000 *
b0b0000000000000000000000000000000000000000000000 +
b0b0 ,

#0
b0b1 $

b0b000000000000 %
b0b1 &
b0b00000 '
b0b0 (
b0b0000 )
b0b0000000000000000000000000000000000000000000000 +
b0b1 ,

#50
b0b0 $
#100
b0b1 $


#150
b0b0 $
#200
b0b1 $


#250
b0b0 $
#300
b0b1 $

b0b0000000000000000000000000000000000000000000000100000000000000000000000000000000000000000000000000000000000000000000000000000000000000000000000000000000000000000000000000000000001000000000000000000000000000000000000000000000000000000000000000000000000000000000000 #
b0b0 &

#350
b0b0 $
#400
b0b1 $

